Update Tidy Omic — update_tidy_omic • romic
…
    a tidy_omic object with an updated schema and/or data.

    Examples

library(dplyr)

tidy_omic <- brauer_2008_tidy
updated_tidy_data <- tidy_omic$data %>%
  mutate(new_sample_var = "foo") %>%
  select(-DR)
new_variable_tables <- c("new_sample_var" = "samples")

update_tidy_omic(tidy_omic, updated_tidy_data, new_variable_tables)
#> $data
#> # A tibble: 18,000 × 8
#>    name    BP    MF    systematic_name sample nutrient expression new_sample_var
#>    <chr>   <chr> <chr> <chr>           <chr>  <chr>         <dbl> <chr>         
#>  1 YOL029C biol… mole… YOL029C         G0.05  G             -0.22 foo           
#>  2 YOL029C biol… mole… YOL029C         G0.1   G             -0.18 foo           
#>  3 YOL029C biol… mole… YOL029C         G0.15  G              0.27 foo           
#>  4 YOL029C biol… mole… YOL029C         G0.2   G              0.18 foo           
#>  5 YOL029C biol… mole… YOL029C         G0.25  G              0.03 foo           
#>  6 YOL029C biol… mole… YOL029C         G0.3   G             -0.04 foo           
#>  7 YOL029C biol… mole… YOL029C         N0.05  N              0.26 foo           
#>  8 YOL029C biol… mole… YOL029C         N0.1   N              0.15 foo           
#>  9 YOL029C biol… mole… YOL029C         N0.15  N              0.04 foo           
#> 10 YOL029C biol… mole… YOL029C         N0.2   N             -0.07 foo           
#> # ℹ 17,990 more rows
…
