…
At this point, we want to fit a few flavors of time series models to each gene in order to determine how reliably each model can discriminate signal-containing and no-signal timecourses.

To make it easy to iterate over features, I like to using the nest function from tidyr to store all the data for a feature in a single row. Here, expression data will be stored as a list of gene-level tables.


```r
nested_timecourses <- simulated_timecourses %>%
  nest(timecourse_data = -c(signal, tc_id)) 

nested_timecourses
```

```
## # A tibble: 10,000 × 3
##    tc_id signal          timecourse_data 
##    <int> <fct>           <list>          
##  1     2 contains signal <tibble [8 × 4]>
##  2     9 contains signal <tibble [8 × 4]>
##  3    10 contains signal <tibble [8 × 4]>
##  4    12 contains signal <tibble [8 × 4]>
##  5    13 contains signal <tibble [8 × 4]>
##  6    14 contains signal <tibble [8 × 4]>
##  7    15 contains signal <tibble [8 × 4]>
##  8    16 contains signal <tibble [8 × 4]>
##  9    22 contains signal <tibble [8 × 4]>
## 10    23 contains signal <tibble [8 × 4]>
## # … with 9,990 more rows
```
…
